{
  "uuid": "%uuid%",
  "name": "Laby-Share",
  "mainClass": "de.paul2708.labyshare.ShareAddon",
  "description": "Share and paste the current chat messages to your sharebin account.",
  "version": 0.1,
  "author": "Paul2708",
  "category": 2,
  "icon": "https://bitbucket.org/Paul2708/laby-share/downloads/icon.png"
}